<?xml version="1.0" encoding="UTF-8" standalone="no"?>
<svg
   xmlns:dc="http://purl.org/dc/elements/1.1/"
   xmlns:cc="http://creativecommons.org/ns#"
   xmlns:rdf="http://www.w3.org/1999/02/22-rdf-syntax-ns#"
   xmlns:svg="http://www.w3.org/2000/svg"
   xmlns="http://www.w3.org/2000/svg"
   xmlns:sodipodi="http://sodipodi.sourceforge.net/DTD/sodipodi-0.dtd"
   xmlns:inkscape="http://www.inkscape.org/namespaces/inkscape"
   version="1.1"
   x="0px"
   y="0px"
   width="186.32645"
   height="27.319538"
   viewBox="0 163.667 186.32645 27.319537"
   enable-background="new 0 163.667 960 238.253"
   space="preserve"
   class="globotv-logos-play-svg unfilled"
   id="svg3410"
   inkscape:version="0.91 r13725"
   sodipodi:docname="logo-combate.svg">
  <metadata
     id="metadata3444">
    <rdf:RDF>
      <cc:Work
         rdf:about="">
        <dc:format>image/svg+xml</dc:format>
        <dc:type
           rdf:resource="http://purl.org/dc/dcmitype/StillImage" />
        <dc:title></dc:title>
      </cc:Work>
    </rdf:RDF>
  </metadata>
  <defs
     id="defs3442" />
  <sodipodi:namedview
     pagecolor="#ffffff"
     bordercolor="#666666"
     borderopacity="1"
     objecttolerance="10"
     gridtolerance="10"
     guidetolerance="10"
     inkscape:pageopacity="0"
     inkscape:pageshadow="2"
     inkscape:window-width="1280"
     inkscape:window-height="778"
     id="namedview3440"
     showgrid="false"
     fit-margin-top="0"
     fit-margin-left="0"
     fit-margin-right="0"
     fit-margin-bottom="0"
     inkscape:zoom="1.6823248"
     inkscape:cx="154.87381"
     inkscape:cy="25.223858"
     inkscape:window-x="0"
     inkscape:window-y="0"
     inkscape:window-maximized="0"
     inkscape:current-layer="svg3410" />
  <g
     id="g3414"
     transform="matrix(0.40950915,0,0,0.4150644,-2.1180261e-4,61.005394)"
     style="fill:#ffffff">
    <path
       style="fill:#ffffff"
       inkscape:connector-curvature="0"
       id="path3416"
       d="m 58.749,287.922 -5.175,19.797 c -0.805,2.944 -3.84,5.44 -6.953,5.44 l -40.674,0 c -4.195,0 -6.775,-3.035 -5.704,-7.229 l 13.645,-53.151 c 0.71,-2.943 3.834,-5.44 6.952,-5.44 l 40.673,0 c 4.188,0 6.774,3.296 5.707,7.312 l -4.634,17.925 -15.88,0 1.961,-7.576 c 0.357,-1.338 -0.442,-2.416 -1.783,-2.416 l -17.029,0 c -1.437,0 -2.946,1.345 -3.304,2.677 l -7.672,30.236 c -0.356,1.345 0.443,2.32 1.782,2.32 l 16.95,0 c 1.421,0 2.942,-1.157 3.294,-2.496 l 1.878,-7.399 15.966,0 z" />
    <path
       style="fill:#ffffff"
       inkscape:connector-curvature="0"
       id="path3418"
       d="m 114.039,307.717 c -0.714,2.945 -3.836,5.441 -6.95,5.441 l -40.85,0 c -4.194,0 -6.604,-3.035 -5.532,-7.228 l 13.559,-53.15 c 0.711,-2.945 3.922,-5.441 7.043,-5.441 l 40.668,0 c 4.193,0 6.689,3.296 5.714,7.313 l -13.652,53.065 z M 79.168,295.496 c -0.356,1.345 0.624,2.321 1.958,2.321 l 16.951,0 c 1.432,0 2.849,-1.158 3.213,-2.496 l 7.848,-30.32 c 0.355,-1.339 -0.449,-2.417 -1.783,-2.417 l -17.031,0 c -1.521,0 -2.951,1.344 -3.309,2.679 l -7.847,30.233 z" />
    <path
       style="fill:#ffffff"
       inkscape:connector-curvature="0"
       id="path3420"
       d="m 185.39,247.339 26.042,0 c 4.199,0 6.688,3.121 5.622,7.313 l -14.988,58.507 -15.875,0 12.312,-48.158 c 0.356,-1.436 -0.539,-2.417 -1.875,-2.417 l -11.771,0 c -1.425,0 -2.946,1.254 -3.303,2.677 l -12.216,47.898 -15.965,0 12.307,-48.158 c 0.357,-1.436 -0.444,-2.417 -1.783,-2.417 l -14.45,0 -12.931,50.575 -15.875,0 16.767,-65.82 32.911,0 c 3.389,0 5.793,1.066 7.223,2.763 2.054,-1.697 4.636,-2.763 7.848,-2.763" />
    <path
       style="fill:#ffffff"
       inkscape:connector-curvature="0"
       id="path3422"
       d="m 272.083,285.062 -5.446,21.765 c -0.976,4.012 -4.459,6.332 -9.094,6.332 l -47.006,0 16.685,-65.82 44.681,0 c 6.24,0 8.916,3.568 7.403,9.277 l -3.211,12.038 c -0.714,2.588 -2.233,4.46 -4.37,5.616 l -3.477,1.872 c 3.654,1.879 4.72,5.181 3.835,8.92 m -38.978,12.755 16.947,0 c 1.423,0 2.848,-1.072 3.211,-2.496 l 2.314,-9.81 c 0.357,-1.516 -0.539,-2.406 -2.228,-1.516 l -20.784,10.967 c -1.513,0.807 -1.331,2.855 0.54,2.855 m 9.543,-35.233 c -1.424,0 -2.944,1.078 -3.302,2.502 l -2.497,9.992 c -0.356,1.424 0.443,2.047 1.782,1.338 l 20.868,-10.973 c 1.344,-0.715 1.609,-0.981 1.701,-1.604 0.085,-0.625 -0.447,-1.255 -1.162,-1.255 l -17.39,0 z" />
    <path
       style="fill:#ffffff"
       inkscape:connector-curvature="0"
       id="path3424"
       d="m 288.129,313.158 -15.966,0 15.521,-60.378 c 0.716,-2.944 3.928,-5.441 6.961,-5.441 l 40.846,0 c 4.016,0 6.599,3.119 5.53,7.313 l -14.892,58.506 -16.059,0 6.297,-23.982 c 0,0 -22.138,-0.06 -22.229,-0.06 l -6.009,24.042 z m 10.066,-39.116 21.943,-0.037 2.248,-9.003 c 0.352,-1.34 -0.45,-2.417 -1.696,-2.417 l -17.039,0 c -1.431,0 -2.945,1.344 -3.302,2.678 0,0 -2.154,8.693 -2.154,8.779" />
    <polygon
       style="fill:#ffffff"
       id="polygon3426"
       points="344.046,262.584 347.978,247.339 400.507,247.339 396.584,262.584 378.209,262.584 365.278,313.159 349.408,313.159 362.337,262.584 " />
    <path
       style="fill:#ffffff"
       inkscape:connector-curvature="0"
       id="path3428"
       d="m 440.55,272.575 -3.92,15.346 -25.952,0 -1.97,7.576 c -0.351,1.345 0.448,2.32 1.788,2.32 l 31.574,0 -3.927,15.341 -42.456,0 c -4.187,0 -6.593,-3.035 -5.526,-7.228 l 13.465,-53.15 c 0.716,-2.945 4.022,-5.44 7.137,-5.44 l 44.237,0 -3.92,15.244 -31.312,0 c -1.424,0 -2.939,1.345 -3.298,2.678 l -1.87,7.313 25.95,0 z" />
  </g>
</svg>
